<?xml version="1.0" standalone="no"?>
<!DOCTYPE svg PUBLIC "-//W3C//DTD SVG 1.1//EN" "http://www.w3.org/Graphics/SVG/1.1/DTD/svg11.dtd">
<svg xmlns="http://www.w3.org/2000/svg">
<metadata>Generated by Fontastic.me</metadata>
<defs>
<font id="untitled-font-2" horiz-adv-x="512">
<font-face font-family="untitled-font-2" units-per-em="512" ascent="480" descent="-32"/>
<missing-glyph horiz-adv-x="512" />

<glyph unicode="&#97;" d="M384 378l0-29c0-3-1-5-2-7-2-2-4-3-7-3l-48 0c-4-27-17-49-37-66-20-18-46-28-79-32 32-34 76-85 132-153 2-3 3-6 1-10-2-3-5-5-9-5l-55 0c-3 0-6 1-7 4-59 69-106 124-143 163-1 1-2 4-2 6l0 36c0 3 1 5 2 7 2 2 4 2 7 2l32 0c25 0 45 5 61 13 15 8 25 20 29 35l-122 0c-3 0-5 1-7 3-1 2-2 4-2 7l0 29c0 2 1 5 2 6 2 2 4 3 7 3l118 0c-11 21-37 32-77 32l-41 0c-3 0-5 1-7 3-1 2-2 4-2 6l0 38c0 3 1 5 2 7 2 2 4 2 7 2l238 0c2 0 4 0 6-2 2-2 3-4 3-7l0-29c0-3-1-5-3-6-2-2-4-3-6-3l-67 0c9-12 15-25 18-41l49 0c3 0 5-1 7-3 1-1 2-4 2-6z"/>
<glyph unicode="&#98;" d="M389 173c0-29-9-54-28-75-19-21-44-34-74-39l0-50c0-3-1-5-3-6-1-2-4-3-6-3l-39 0c-2 0-4 1-6 3-2 2-3 4-3 6l0 50c-13 2-25 5-36 9-12 4-22 8-29 13-8 4-15 9-22 13-6 5-10 9-13 11-2 2-4 4-5 5-3 4-3 8 0 12l29 39c1 1 4 3 7 3 2 0 5 0 6-3l1 0c22-19 45-31 69-36 7-1 15-2 22-2 15 0 29 4 40 12 12 8 18 20 18 35 0 5-2 10-4 15-3 5-6 9-10 12-4 3-9 7-17 11-7 4-14 7-19 9-5 2-12 5-22 9-8 3-14 6-18 7-4 2-10 5-18 8-7 3-13 6-17 9-5 2-10 6-17 10-6 4-11 8-15 12-4 4-8 9-12 14-5 6-8 11-10 17-3 5-5 12-6 19-2 7-3 14-3 22 0 26 9 49 28 69 19 20 43 33 73 38l0 52c0 2 1 4 3 6 2 2 4 3 6 3l39 0c2 0 5-1 6-3 2-1 3-3 3-6l0-50c11-2 21-4 31-7 11-3 19-6 25-10 7-3 13-6 18-10 6-4 10-7 12-9 1-1 3-2 4-4 3-3 4-7 1-10l-23-42c-1-3-4-5-6-5-3 0-6 0-8 2-1 1-2 2-4 4-2 1-6 4-11 7-6 4-11 7-17 9-6 3-13 6-21 8-9 2-17 3-25 3-18 0-33-4-44-12-12-8-17-19-17-32 0-5 1-9 2-14 2-4 5-8 9-11 4-4 7-7 11-10 3-2 9-5 16-9 7-3 13-6 17-7 5-2 11-5 20-8 10-4 18-7 23-9 6-2 13-6 22-10 9-5 16-9 22-12 5-4 11-9 17-15 7-6 12-12 15-18 4-6 7-13 9-22 3-8 4-17 4-27z"/>
<glyph unicode="&#99;" d="M389 139l10-46c0-2 0-4-1-6-1-2-3-4-5-4l-2-1c0 0-1 0-3-1-1 0-2 0-4-1-2-1-4-1-6-2-3 0-5-1-8-1-2 0-5-1-8-1-3-1-6-1-10-2-3 0-6 0-10-1-4 0-8 0-11 0-45 0-84 13-117 37-33 25-56 59-68 101l-27 0c-3 0-5 1-7 3-1 1-2 4-2 6l0 32c0 3 1 5 2 7 2 2 4 2 7 2l19 0c-1 11-1 21 0 30l-19 0c-3 0-5 1-7 3-1 2-2 4-2 7l0 32c0 3 1 5 2 7 2 1 4 2 7 2l28 0c13 40 36 72 69 97 34 24 72 36 115 36 19 0 38-2 55-6 2-1 4-2 6-4 1-3 1-5 1-7l-12-46c-1-2-2-4-4-5-3-2-5-2-7-1l-1 0c-1 0-2 1-4 1l-5 1c0 0-2 0-6 1-4 1-7 1-8 1 0 0-3 0-8 1-5 0-8 0-8 0-24 0-46-6-65-18-19-13-33-29-43-51l134 0c3 0 5-1 7-3 2-2 3-5 2-8l-7-32c-1-5-4-8-9-8l-139 0c-1-7-1-17 0-30l131 0c3 0 5-1 7-3 2-2 2-5 2-8l-7-32c-1-2-2-4-3-5-2-1-4-2-6-2l-111 0c10-22 24-40 43-53 19-13 41-20 65-20 4 0 7 0 11 1 3 0 6 0 9 1 3 0 6 1 9 1 2 0 5 1 7 1 2 1 3 1 5 2l3 1 2 0c2 1 5 1 7 0 3-2 4-4 5-6z"/>
<glyph unicode="&#100;" d="M401 187l0-105c0-2-1-5-2-6-2-2-4-3-7-3l-273 0c-3 0-5 1-7 3-1 1-2 4-2 6l0 43c0 3 1 5 2 7 2 1 4 2 7 2l28 0 0 110-28 0c-2 0-4 1-6 2-2 2-3 4-3 7l0 37c0 3 1 5 3 7 2 2 4 2 6 2l28 0 0 64c0 33 11 60 35 81 23 21 53 31 90 31 35 0 67-11 95-35 2-2 3-4 3-6 0-3 0-5-2-7l-29-36c-2-2-4-3-6-3-3-1-5 0-7 2-1 1-3 2-7 5-4 3-11 6-20 9-9 4-18 5-27 5-16 0-29-4-39-13-10-9-15-21-15-35l0-62 87 0c3 0 5 0 7-2 2-2 3-4 3-7l0-37c0-3-1-5-3-7-2-1-4-2-7-2l-87 0 0-109 119 0 0 52c0 3 0 5 2 7 2 1 4 2 7 2l46 0c3 0 5-1 7-2 1-2 2-4 2-7z"/>
<glyph unicode="&#101;" d="M282 73l-50 0c-2 0-4 1-6 3-2 1-3 4-3 6l0 95-82 0c-2 0-5 0-6 2-2 2-3 4-3 7l0 29c0 3 1 5 3 7 1 1 4 2 6 2l82 0 0 25-82 0c-2 0-5 0-6 2-2 2-3 4-3 7l0 29c0 3 1 5 3 7 1 2 4 3 6 3l61 0-92 165c-1 3-1 6 0 9 2 3 5 4 8 4l56 0c3 0 6-1 8-5l62-121c3-7 9-19 16-36 1 5 4 11 8 20 4 8 7 14 8 17l55 120c1 4 4 5 8 5l55 0c3 0 5-1 7-4 2-3 2-6 1-9l-90-165 62 0c2 0 4-1 6-3 2-2 3-4 3-7l0-29c0-3-1-5-3-7-2-2-4-2-6-2l-83 0 0-25 83 0c2 0 4-1 6-2 2-2 3-4 3-7l0-29c0-3-1-5-3-7-2-2-4-2-6-2l-83 0 0-95c0-2-1-4-3-6-2-2-4-3-6-3z"/>
<glyph unicode="&#102;" d="M292 353l74 0-9-81-65 0 0-235-97 0 0 235-49 0 0 81 49 0 0 49c0 35 8 61 24 79 17 18 44 26 81 26l65 0 0-81-40 0c-8 0-14 0-18-2-5-1-8-3-10-6-2-4-3-7-4-10 0-3-1-8-1-14z"/>
<glyph unicode="&#103;" d="M481 395c-13-18-28-34-46-47 0-3 0-7 0-12 0-25-3-50-11-74-7-25-18-49-33-71-14-23-32-43-52-61-21-17-45-31-74-41-29-11-60-16-92-16-52 0-99 14-142 42 7-1 14-2 22-2 43 0 81 14 115 40-20 0-38 6-54 18-16 12-27 27-33 46 7-1 13-2 18-2 8 0 16 1 24 4-21 4-39 15-53 31-14 17-21 37-21 59l0 1c13-7 27-11 42-11-13 8-23 19-30 32-8 14-11 29-11 44 0 17 4 33 12 47 23-28 51-51 84-68 33-17 69-27 107-29-2 8-3 15-3 22 0 25 9 47 27 65 18 18 40 27 66 27 26 0 49-10 67-29 21 4 40 11 59 22-7-22-21-39-41-51 18 2 35 7 53 14z"/>
<glyph unicode="&#104;" d="M269 93c0 4-1 8-2 12-1 4-1 7-2 10-1 3-3 7-5 10-3 4-5 6-6 9-2 2-5 5-8 8-3 4-6 6-8 8-2 1-5 4-9 7-4 3-7 5-9 6-1 2-5 4-9 7-5 3-8 5-9 6-3 0-8 1-14 1-11 0-21-1-31-2-9-2-20-4-30-8-11-3-20-7-28-13-8-5-15-12-20-21-5-9-8-19-8-31 0-13 4-24 10-34 7-11 16-19 27-24 11-6 22-11 34-13 12-3 24-5 37-5 11 0 22 1 32 4 10 2 19 6 28 11 9 5 16 12 22 21 5 9 8 19 8 31z m-35 247c0 11-1 23-4 36-4 13-8 25-14 37-6 12-14 22-24 30-10 8-21 12-34 12-18 0-31-7-41-20-10-13-15-29-15-47 0-9 1-18 4-28 2-10 5-20 10-30 4-10 10-19 16-27 6-8 13-14 22-19 9-5 18-7 28-7 18 0 32 5 40 17 8 11 12 27 12 46z m-37 135l125 0-39-22-38 0c13-9 24-21 31-36 7-16 11-32 11-48 0-15-2-27-6-38-5-11-10-20-16-26-7-7-13-13-19-19-7-5-12-11-16-17-5-6-7-13-7-20 0-5 2-9 5-14 3-5 7-9 12-14 5-4 11-9 17-14 6-4 12-10 18-15 6-6 12-13 17-19 5-7 9-15 12-25 3-9 5-19 5-30 0-30-13-57-40-81-29-25-69-37-120-37-11 0-23 1-34 3-12 2-23 5-35 9-12 5-22 10-31 17-9 7-16 15-22 25-6 11-9 22-9 35 0 12 4 25 11 39 6 12 15 22 27 31 12 9 26 16 42 21 15 4 30 8 44 10 14 2 28 3 43 4-12 16-18 30-18 42 0 3 0 5 0 7 1 2 1 4 2 6 0 1 1 3 2 6 1 2 1 4 2 6-8-1-14-2-20-2-29 0-53 10-73 28-20 19-31 43-31 71 0 26 9 50 28 71 18 21 40 35 66 41 18 4 36 5 54 5z m297-73l0-36-73 0 0-73-37 0 0 73-73 0 0 36 73 0 0 73 37 0 0-73z"/>
<glyph unicode="&#105;" d="M0 512l0-512 512 0 0 512z m491-21l0-342-15 0-73 145c-7 16-23 26-41 26-17 0-32-9-40-23l-57-97c-16 20-52 56-94 56-53 0-92-81-103-107l-47 0 0 342z m-39-342l-361 0c16 33 47 86 80 86 47 0 86-59 87-60 2-3 5-5 9-4 4 0 7 2 9 5l64 110c5 8 13 13 22 13 9 0 18-6 22-14z m-431-128l0 107 470 0 0-107z m118 299l64 0c35 0 64 29 64 64 0 35-29 64-64 64-28 0-52-17-61-43-24 2-46-18-46-42 0-24 19-43 43-43z m0 64c2 0 5-1 7-2l13-4 2 13c3 21 21 36 42 36 23 0 42-19 42-43 0-24-19-43-42-43l-64 0c-12 0-22 10-22 22 0 11 10 21 22 21z"/>
<glyph unicode="&#106;" d="M501 512l-320 0c-6 0-10-5-10-11l0-85c0-6 4-11 10-11 6 0 11 5 11 11l0 75 299 0 0-171-64 0c-3 0-6-1-8-3l-67-67 0 59c0 6-5 11-11 11l-42 0c-6 0-11-5-11-11 0-6 5-10 11-10l32 0 0-75c0-4 2-8 6-10 2 0 3-1 4-1 3 0 6 1 8 3l82 83 70 0c6 0 11 4 11 10l0 192c0 6-5 11-11 11z m-200-412l-78 28 0 36c25 20 40 53 40 91 0 61-42 112-94 112-53 0-95-51-95-112 0-40 17-75 44-94l0-33-77-28c-25-9-41-32-41-58l0-42 341 0 0 42c0 26-16 49-40 58z m-132 245c35 0 64-31 72-71-23-4-37 3-50 27l-10 17-9-17c-7-14-33-27-54-27-8 0-14 1-21 3 9 39 37 68 72 68z m-74-90c0 0 0 1 0 1 7-2 15-3 23-3 23 0 48 10 63 25 13-18 29-27 49-27 4 0 8 1 12 1-1-48-34-88-73-88-41 0-74 41-74 91z m225-234l-299 0 0 21c0 17 11 32 27 38l91 33 0 36c9-4 19-6 30-6 11 0 23 3 33 8l0-38 92-33c15-6 26-21 26-38z m85 374c0-6-4-11-10-11-6 0-11 5-11 11 0 6 5 10 11 10 6 0 10-4 10-10z m-53 0c0-6-5-11-11-11-6 0-10 5-10 11 0 6 4 10 10 10 6 0 11-4 11-10z m-53 0c0-6-5-11-11-11-6 0-11 5-11 11 0 6 5 10 11 10 6 0 11-4 11-10z"/>
<glyph unicode="&#107;" d="M461 143l-130 36 0 38c38 29 64 78 64 135 0 88-62 160-139 160-76 0-138-72-138-160 0-56 25-106 63-134l0-39-131-36c-30-11-50-39-50-71l0-72 512 0 0 72c0 32-20 60-51 71z m-205 348c51 0 94-39 110-93-4-4-10-6-18-6-21 1-50 19-61 40l-10 17-9-18c-9-18-25-28-46-32-28-5-58 5-71 11 18 48 59 81 105 81z m-116-139c0 13 1 26 4 38 20-10 52-17 82-12 22 4 39 14 52 30 18-21 46-36 70-37 0 0 1 0 2 0 8 0 15 2 21 5 2-8 2-16 2-24 0-76-52-139-117-139-64 0-116 63-116 139z m350-331l-468 0 0 51c0 23 14 43 34 50l147 41 0 42c16-9 34-13 53-13 19 0 37 4 53 12l0-41 146-41c21-7 35-27 35-50z"/>
<glyph unicode="&#108;" d="M267 501c-124 0-224-115-224-256 0-176 149-235 217-235l0 0c15 0 34 2 44 14 5 6 7 13 5 21-11 53-2 87 9 101 4 5 8 7 13 7 9 0 21-9 31-25 14-20 30-30 46-30 51 0 83 97 83 147 0 149-95 256-224 256z m141-382c-11 0-21 12-28 22-19 27-37 33-49 33-11 0-22-5-30-15-18-22-23-67-13-118 1-2 0-3 0-3-3-3-12-7-28-7l0 0c-61 0-196 54-196 214 0 130 91 235 203 235 117 0 202-99 202-235 0-51-32-126-61-126z m-205 62c-30 0-54-24-54-53 0-29 24-53 54-53 29 0 53 24 53 53 0 29-24 53-53 53z m0-85c-18 0-32 14-32 32 0 18 14 32 32 32 17 0 32-14 32-32 0-18-15-32-32-32z m-22 171c0 11-4 22-12 30-8 8-19 12-30 12-12 0-22-4-30-12-9-8-13-19-13-30 0-24 19-43 43-43 0 0 0 0 0 0 11 0 22 4 30 13 8 8 12 18 12 30z m-27-15c-4-4-10-7-15-7l0-10 0 10c-12 0-22 10-22 22 0 5 3 11 7 15 4 4 9 6 15 6 5 0 11-2 15-6 4-4 6-10 6-15 0-6-2-11-6-15z m38 68c0 0 0 0 0 0 11 0 22 4 30 13 8 8 13 18 13 30 0 11-5 22-13 30-8 8-19 12-30 12-11 0-22-4-30-12-8-8-13-19-13-30 0-24 19-43 43-43z m-15 58c4 4 9 6 15 6 6 0 11-2 15-6 4-4 6-10 6-15 0-6-2-11-6-15-4-4-9-7-15-7l0-10 0 10c-12 0-21 10-21 22 0 5 2 11 6 15z m111 70c-11 0-22-4-30-13-8-8-13-18-13-30 0-23 19-42 43-42 0 0 0 0 0 0 11 0 22 4 30 12 8 8 13 19 13 30 0 12-5 22-13 30-8 9-19 13-30 13z m15-58c-4-4-9-6-15-6l0-11 0 11c-12 0-21 10-21 21 0 6 2 11 6 15 4 4 9 7 15 7 6 0 11-3 15-7 4-4 6-9 6-15 0-5-2-11-6-15z m81-17c-11 0-22-4-30-12-8-8-13-19-13-30 0-24 19-43 43-43 0 0 0 0 0 0 11 0 22 4 30 13 8 8 13 18 13 30 0 11-5 22-13 30-8 8-19 12-30 12z m15-57c-4-4-9-7-15-7l0-10 0 10c-12 0-21 10-21 22 0 5 2 11 6 15 4 4 9 6 15 6 6 0 11-2 15-6 4-4 6-10 6-15 0-6-2-11-6-15z"/>
<glyph unicode="&#109;" d="M299 378l0 27 19 0 26 107-176 0 26-107 19 0 0-27c-52-16-85-61-85-122 0-61 50-148 86-212 8-14 16-27 22-38l3-6 34 0 3 6c6 11 14 24 22 38 36 64 86 151 86 212 0 61-33 106-85 122z m-104 113l122 0-16-64-90 0z m40-86l42 0 0-23c-7 1-14 2-21 2-7 0-14-1-21-2z m21-192c-12 0-21 10-21 22 0 11 9 21 21 21 12 0 21-10 21-21 0-12-9-22-21-22z m23-158c-4-8-8-15-12-22l0 161c18 4 32 21 32 41 0 23-19 42-43 42-24 0-43-19-43-42 0-20 14-37 32-41l0-161c-4 7-8 14-12 22-35 61-84 146-84 201 0 65 42 107 107 107 65 0 107-42 107-107 0-55-49-140-84-201z"/>
<glyph unicode="&#110;" d="M509 449l-60 60c-2 2-5 3-8 3-3 0-5-1-7-3l-9-8c-20 13-49 11-67-7l-120-121c-5-4-5-11 0-15 2-2 4-3 7-3 3 0 6 1 8 3l120 121c10 10 25 12 37 6l-308-308c-4-4-4-11 0-15l4-4c-4 1-7 1-10 1-17 0-33-7-45-19-40-39-40-116-40-119 0 0 0 0 0 0l0-11 10 0c4 0 80 1 120 41 12 12 18 28 18 45 0 3 0 6-1 9l4-3c2-2 5-4 8-4 3 0 5 2 7 4l211 211c0 0 0 0 0 0 0 0 0 0 0 0l121 120c4 5 4 11 0 16z m-383-383c-20-20-53-28-76-32l39 40c4 4 4 11 0 15-4 4-11 4-15 0l-40-40c4 24 12 57 32 76 8 8 19 13 30 13 11 0 22-5 30-13 8-8 12-18 12-29 0-12-4-22-12-30z m44 58l-46 45 197 197 45-46z m211 211l-45 46 105 105 45-45z"/>
<glyph unicode="&#111;" d="M219 127l0 12 21 0 0 64-128 0 0-64 22 0 0-12c-68-12-104-51-109-116l-1-11 302 0-1 11c-5 66-40 104-106 116z m-171-106c7 51 39 78 98 86l9 1 0 52-21 0 0 21 85 0 0-21-21 0 0-52 9-1c58-8 88-34 96-86z m433 481c-5 4-11 4-15 0l-50-50 0 47c0 4-2 7-5 9-2 2-6 3-9 1-34-11-70-35-102-68-63-62-90-135-67-172l-27-27c-4-4-4-11 0-15 2-2 5-3 7-3 3 0 6 1 8 3l27 27c8-5 19-8 30-8 32 0 75 19 118 55 3 3 4 8 3 12-2 4-6 7-10 7l-75 0 21 21 96 0c6 0 11 5 11 11 0 6-5 11-11 11l-74 0 21 21 85 0c4 0 8 2 10 5 28 49 30 90 8 113z m-166-76c25 25 53 46 79 58l0-53-28-28c0-1 0-1-1-1l-41-42c-1 0-1-1-1-1l-42-42c0 0-1 0-1-1l-31-31c-11 28 11 86 66 141z m42-127c-38-26-73-37-93-29l29 29z m100 106l-58 0 72 72c7-16 2-41-14-72z"/>
<glyph unicode="&#112;" d="M437 224c-6 0-10-5-10-11l0-192-107 0 0 139-128 0 0-139-107 0 0 203c0 6-4 11-10 11-6 0-11-5-11-11l0-224 149 0 0 139 86 0 0-139 149 0 0 213c0 6-5 11-11 11z m72 18l-253 242-253-242c-4-4-4-10 0-15 4-4 11-4 15 0l238 228 238-228c2-2 5-3 7-3 3 0 6 1 8 3 4 5 4 11 0 15z m-168 185l64 0 0-64c0-6 5-11 11-11 6 0 11 5 11 11l0 85-86 0c-6 0-10-5-10-11 0-6 4-10 10-10z"/>
<glyph unicode="&#113;" d="M427 171c-26 0-49-12-64-30l-157 78c5 12 7 24 7 37 0 13-2 25-7 37l157 78c15-18 38-30 64-30 47 0 85 39 85 86 0 47-38 85-85 85-47 0-86-38-86-85 0-6 1-12 2-18l-159-80c0 0 0 0 0 0-19 21-47 34-77 34-59 0-107-48-107-107 0-59 48-107 107-107 30 0 58 13 77 34 0 0 0 0 0 0l159-80c-1-6-2-12-2-18 0-47 39-85 86-85 47 0 85 38 85 85 0 47-38 86-85 86z m0 298c23 0 42-19 42-42 0-24-19-43-42-43-24 0-43 19-43 43 0 23 19 42 43 42z m-320-277c-36 0-64 29-64 64 0 35 28 64 64 64 35 0 64-29 64-64 0-35-29-64-64-64z m320-149c-24 0-43 19-43 42 0 24 19 43 43 43 23 0 42-19 42-43 0-23-19-42-42-42z"/>
<glyph unicode="&#114;" d="M221 475l63 0 0-110 104 0 0-69-104 0 0-113c0-26 1-42 4-49 2-7 7-13 15-17 9-6 20-9 33-9 22 0 44 7 66 22l0-69c-19-10-36-16-51-19-14-4-31-5-49-5-20 0-38 2-53 7-15 5-28 12-40 22-11 9-18 19-22 30-4 10-6 25-6 46l0 154-49 0 0 62c17 5 32 13 44 24 12 10 22 23 30 37 7 15 12 34 15 56z"/>
<glyph unicode="&#115;" d="M256 512c-94 0-171-77-171-171 0-90 156-316 162-326l9-12 9 12c6 10 162 236 162 326 0 94-77 171-171 171z m0-472c-33 50-149 229-149 301 0 83 67 150 149 150 82 0 149-67 149-150 0-72-116-251-149-301z m0 376c-41 0-75-33-75-75 0-41 34-74 75-74 41 0 75 33 75 74 0 42-34 75-75 75z m0-128c-29 0-53 24-53 53 0 30 24 54 53 54 29 0 53-24 53-54 0-29-24-53-53-53z"/>
<glyph unicode="&#116;" d="M480 309l-40 0c-4 14-9 27-16 40l28 28c6 6 9 14 9 22 0 9-3 17-9 23l-30 30c-12 12-33 12-45 0l-28-28c-13 7-26 12-40 16l0 40c0 18-14 32-32 32l-42 0c-18 0-32-14-32-32l0-40c-14-4-27-9-40-16l-28 28c-12 12-33 12-45 0l-30-30c-13-13-13-33 0-45l28-28c-7-13-12-26-16-40l-40 0c-9 0-17-3-23-9-6-6-9-14-9-23l0-42c0-18 14-32 32-32l40 0c4-14 9-27 16-40l-28-28c-6-6-10-14-10-22 0-9 4-17 10-23l30-30c12-12 33-12 45 0l28 28c13-7 26-12 40-16l0-40c0-18 14-32 32-32l42 0c18 0 32 14 32 32l0 40c14 4 27 9 40 16l28-28c12-12 33-12 45 0l30 30c13 13 13 33 0 45l-28 28c7 13 12 26 16 40l40 0c9 0 17 3 23 9 6 6 9 14 9 23l0 42c0 18-14 32-32 32z m11-74c0-3-1-6-3-8-2-2-5-3-8-3l-48 0c-5 0-9-3-10-8-4-17-11-34-20-49-3-4-2-9 1-13l34-34c4-4 4-11 0-15l-30-30c-4-4-11-4-15 0l-34 34c-4 3-9 4-13 1-15-9-32-16-49-20-5-1-8-5-8-10l0-48c0-6-5-11-11-11l-42 0c-6 0-11 5-11 11l0 48c0 5-3 9-8 10-17 4-34 11-49 20-1 2-3 2-5 2-3 0-6-1-8-3l-34-34c-4-4-11-4-15 0l-30 30c-2 2-3 5-3 8 0 2 1 5 3 7l34 34c3 4 4 9 1 13-9 15-16 32-20 49-1 5-5 8-10 8l-48 0c-6 0-11 5-11 11l0 42c0 3 1 6 3 8 2 2 5 3 8 3l48 0c5 0 9 3 10 8 4 17 11 34 20 49 3 4 2 9-1 13l-34 34c-4 4-4 11 0 15l30 30c4 4 11 4 15 0l34-34c4-3 9-4 13-1 15 9 32 16 49 20 5 1 8 5 8 10l0 48c0 6 5 11 11 11l42 0c6 0 11-5 11-11l0-48c0-5 3-9 8-10 17-4 34-11 49-20 4-3 9-2 13 1l34 34c4 4 11 4 15 0l30-30c2-2 3-5 3-8 0-2-1-5-3-7l-34-34c-3-4-4-9-1-13 9-15 16-32 20-49 1-5 5-8 10-8l48 0c6 0 11-5 11-11z m-235 128c-59 0-107-48-107-107 0-59 48-107 107-107 59 0 107 48 107 107 0 59-48 107-107 107z m0-192c-47 0-85 38-85 85 0 47 38 85 85 85 47 0 85-38 85-85 0-47-38-85-85-85z"/>
<glyph unicode="&#117;" d="M478 94l-90 91 15 15c4 4 4 11 0 15-4 4-11 4-15 0l-38-38-56 56 70 71c10-4 20-5 31-5 25 0 49 10 68 28 27 28 35 69 20 105-1 3-4 6-8 6-3 1-7 0-9-3l-38-37-30 0 0 30 37 38c3 2 4 6 3 9 0 4-3 7-6 8-12 5-24 8-37 8-26 0-50-10-68-28-26-27-35-64-23-99l-71-70-110 111 7 7c2 2 3 5 3 8 0 2-1 5-3 7l-60 61c-4 4-11 4-15 0l-31-31c-2-2-3-4-3-7 0-3 1-6 3-8l61-60c2-2 5-3 7-3 3 0 6 1 8 3l7 7 111-110-70-71c-10 4-20 5-31 5-25 0-49-10-68-28-27-28-35-69-20-105 1-3 4-6 8-6 3-1 7 0 9 2l38 38 30 0 0-30-38-38c-2-2-3-6-2-9 0-4 3-7 6-8 12-5 24-8 37-8 26 0 50 10 68 28 26 26 35 64 23 99l71 70 56-56-38-38c-4-4-4-11 0-15 2-2 5-3 8-3 2 0 5 1 7 3l15 15 91-90c8-8 19-13 30-13 11 0 22 5 30 13 8 8 13 19 13 30 0 11-5 22-13 30z m-386 311l-45 45 15 15 45-45z m94-259c12-28 6-60-16-82-14-14-33-21-53-21-4 0-9 0-13 1l28 28c2 2 4 5 4 8l0 45c0 6-5 10-11 10l-45 0c-3 0-6-1-8-3l-28-28c-4 24 3 48 21 66 14 14 32 22 52 22 10 0 20-2 29-6 4-2 9-1 12 2l166 166c3 3 4 7 2 11-12 29-6 61 16 82 14 14 33 22 53 22 4 0 8 0 13-1l-28-28c-2-2-4-5-4-8l0-45c0-6 5-11 11-11l45 0c3 0 6 2 8 4l28 28c4-24-3-49-21-66-14-14-32-22-52-22-10 0-20 2-29 6-4 2-9 1-12-2l-166-166c-3-3-4-8-2-12z m277-97c-8-8-22-8-30 0l-91 90 31 31 90-91c4-4 6-9 6-15 0-6-2-11-6-15z"/>
<glyph unicode="&#118;" d="M107 512l0-64-64 0 0-448 362 0 0 64 64 0 0 448z m256-469l-278 0 0 362 22 0 0-341 256 0z m64 64l-278 0 0 362 278 0z m-107 298l-128 0 0-42 128 0z m64-64l-192 0 0-21 192 0z m0-42l-192 0 0-22 192 0z m0-43l-192 0 0-21 192 0z m-128-43l-64 0 0-21 64 0z"/>
<glyph unicode="&#119;" d="M149 363l0-43 128 0 0 43z m0-86l192 0 0 22-192 0z m192-21l-64 0 0-21 64 0z m-64-64l64 0 0 21-64 0z m-213 277l0-213 43 0 0 171 277 0 0-363-107 0 0-43 150 0 0 448z m143-330c0 5-1 10-2 14l30 20-19 33-30-20c-6 5-12 8-19 11l0 38-36 0 0-38c-7-3-13-6-18-11l-30 20-19-33 30-20c-2-4-2-9-2-14 0-5 0-10 2-15l-30-20 19-33 30 21c5-5 11-9 18-11l0-38 36 0 0 37c7 3 13 7 19 11l30-20 19 33-30 20c1 5 2 10 2 15z m-58-39c-19 0-35 17-35 39 0 21 16 38 35 38 20 0 36-17 36-38 0-22-16-39-36-39z"/>
<glyph unicode="&#120;" d="M171 363l0-43 128 0 0 43z m0-86l192 0 0 22-192 0z m192-21l-171 0 0-21 171 0z m0-64l0 21-150 0 0-21z m-192 21l-64 0 0-64-64 0 0-64 64 0 0-64 64 0 0 64 64 0 0 64-64 0z m-86 256l0-213 43 0 0 171 277 0 0-363-141 0-22-43 206 0 0 448z"/>
<glyph unicode="&#121;" d="M149 363l128 0 0-43-128 0z m0-64l192 0 0-22-192 0z m0-43l192 0 0-21-192 0z m0-43l192 0 0-21-192 0z m0-42l64 0 0-22-64 0z m202 298l-287 0 0-448 363 0 0 373z m33-93l0-13-64 0 0 64 13 0z m-277-312l0 363 192 0 0-86 85 0 0-277z"/>
<glyph unicode="&#122;" d="M448 277l0 150-64 0 0 64-341 0 0-214-22 0 0-42 22 0 0-235 426 0 0 235 22 0 0 42z m-43 107l0-107-256 0 0 107z m-320 64l256 0 0-21-234 0 0-150-22 0z m342-405l-342 0 0 192 342 0z m-43 170l-256 0 0-149 256 0z m-21-128l-214 0 0 107 214 0z m-22 86l-170 0 0-22 170 0z m-64-43l-106 0 0-21 106 0z"/>
<glyph unicode="&#65;" d="M64 469l0-448 363 0 0 448z m320-405l-277 0 0 363 277 0z m-43 299l-128 0 0-43 128 0z m0-64l-192 0 0-22 192 0z m0-43l-192 0 0-21 192 0z m0-43l-192 0 0-21 192 0z m-64-64l64 0 0 22-64 0z"/>
<glyph unicode="&#66;" d="M64 469l0-448 363 0 0 448z m320-405l-277 0 0 363 277 0z m-107 299l-128 0 0-43 128 0z m64-64l-192 0 0-22 192 0z m0-43l-192 0 0-21 192 0z m0-43l-192 0 0-21 192 0z m-128-42l-64 0 0-22 64 0z"/>
<glyph unicode="&#67;" d="M64 469l0-448 363 0 0 448z m320-405l-277 0 0 363 277 0z m-43 299l-192 0 0-43 192 0z m0-64l-192 0 0-22 192 0z m0-43l-192 0 0-21 192 0z m0-43l-192 0 0-21 192 0z m0-42l-192 0 0-22 192 0z"/>
<glyph unicode="&#68;" d="M64 469l0-448 363 0 0 448z m320-405l-277 0 0 363 277 0z m-85 299l-128 0 0-43 128 0z m42-64l-192 0 0-22 192 0z m0-43l-192 0 0-21 192 0z m0-43l-192 0 0-21 192 0z m-128-64l64 0 0 22-64 0z"/>
<glyph unicode="&#69;" d="M427 427l0 85-128 0 0-85-86 0 0 85-128 0 0-85-85 0 0-406 512 0 0 406z m-86 42l43 0 0-85-43 0z m-213 0l43 0 0-85-43 0z m341-405l-426 0 0 235 426 0z m0 256l-426 0 0 64 42 0 0-43 128 0 0 43 86 0 0-43 128 0 0 43 42 0z m-362-85l42 0 0-43-42 0z m64 0l42 0 0-43-42 0z m64 0l42 0 0-43-42 0z m64 0l42 0 0-43-42 0z m64 0l42 0 0-43-42 0z m-256-64l42 0 0-43-42 0z m64 0l42 0 0-43-42 0z m64 0l42 0 0-43-42 0z"/>
<glyph unicode="&#70;" d="M171 363c-6 0-11-5-11-11l0-267c0-6 5-10 11-10 6 0 10 4 10 10l0 267c0 6-4 11-10 11z m85 0c-6 0-11-5-11-11l0-267c0-6 5-10 11-10 6 0 11 4 11 10l0 267c0 6-5 11-11 11z m85 0c-6 0-10-5-10-11l0-267c0-6 4-10 10-10 6 0 11 4 11 10l0 267c0 6-5 11-11 11z m171 74l-139 0 0 64-234 0 0-64-139 0 0-21 75 0 0-416 362 0 0 416 75 0z m-352 43l192 0 0-43-192 0z m256-459l-320 0 0 395 320 0z"/>
<glyph unicode="&#71;" d="M275 499l-187-335 1 0 9-151 138 68 1 0 187 335z m-146-433l-1 76 68-39z m91 73l-74 41 115 205 74-41z m51 265l21 37 74-42-21-37z"/>
<glyph unicode="&#72;" d="M0 448l0-384 512 0 0 384z m469-341l-426 0 0 298 426 0z m-160 140c24 0 43 19 43 42 0 24-19 43-43 43-23 0-42-19-42-43 0-23 19-42 42-42z m-21 64l43 0 0-43-43 0z m160 73l-384 0 0-256 384 0z m-363-149l129-36-129-23z m342-86l-342 0 0 5 342 60z m0 87l-171-32-171 53 0 106 342 0z"/>
<glyph unicode="&#73;" d="M491 395l0-374-374 0 0-21 395 0 0 395z m-22 64l-21 0 0-395-395 0 0-21 416 0z m-42-288l0 341-427 0 0-427 427 0z m-406 320l384 0 0-299-35 0-61 164c-2 3-5 6-9 7-4 0-8-2-10-5l-78-116-44 53c-2 2-5 4-9 4-3-1-6-3-8-6l-61-101-69 0z m326-299l-232 0 46 78 44-53c2-2 6-4 9-4 3 1 6 2 8 5l74 111z m-326-85l0 64 384 0 0-64z m107 256c24 0 43 19 43 42 0 24-19 43-43 43-24 0-43-19-43-43 0-23 19-42 43-42z m0 64c12 0 21-10 21-22 0-11-9-21-21-21-12 0-21 10-21 21 0 12 9 22 21 22z"/>
<glyph unicode="&#74;" d="M427 139l-342 0 0 213 22 0 0 21-32 0c-6 0-11-4-11-10l0-235c0-6 5-11 11-11l362 0c6 0 11 5 11 11l0 53-21 0z m74 320l-362 0c-6 0-11-5-11-11l0-235c0-6 5-10 11-10l362 0c6 0 11 4 11 10l0 235c0 6-5 11-11 11z m-10-235l-342 0 0 213 342 0z m-128-171l-342 0 0 214 22 0 0 21-32 0c-6 0-11-5-11-11l0-234c0-6 5-11 11-11l362 0c6 0 11 5 11 11l0 53-21 0z"/>
<glyph unicode="&#75;" d="M387 395l-113 114c-2 2-4 3-7 3 0 0 0 0 0 0-3 0-6-1-8-3l-114-114-145 0 0-395 512 0 0 395z m-120 91l90-91-182 0z m224-465l-470 0 0 352 470 0z m-22 331l-426 0 0-309 426 0z m-405-21l384 0 0-128-53 0c-6 0-11-5-11-11l0-53-32 0c-6 0-11-5-11-11l0-64-37 0c-17 22-101 133-101 235 0 6-5 10-11 10-6 0-11-4-11-10 0-101-84-213-101-235l-16 0z m320-267l-21 0 0 53 21 0z m-241 53l98 0c14-22 27-41 36-53l-170 0c9 12 22 31 36 53z m12 22c14 26 28 57 37 89 9-32 23-63 37-89z m250-75l0 117 43 0 0-117z"/>
<glyph unicode="&#76;" d="M96 192c-29 0-53-24-53-53 0-30 24-54 53-54 29 0 53 24 53 54 0 29-24 53-53 53z m0-85c-18 0-32 14-32 32 0 17 14 32 32 32 18 0 32-15 32-32 0-18-14-32-32-32z m125-10c5-2 11 1 13 6l19 57 27 0 19-57c2-4 6-7 10-7 1 0 3 0 4 1 5 1 8 7 6 13l-21 64c-1 4-5 7-10 7l-43 0c-4 0-8-3-10-7l-21-64c-2-6 1-12 7-13z m-50 351l21 0 0-107-21 0z m42 0l22 0 0-107-22 0z m43 0l21 0 0-107-21 0z m43 0l21 0 0-107-21 0z m42 0l22 0 0-107-22 0z m43-341l85 0 0 64-85 0z m21 42l43 0 0-21-43 0z m32 86l-74 0 0 21-22 0 0 43 11 0c29 0 53 24 53 53l0 139-277 0 0-139c0-29 24-53 53-53l11 0 0-43-21 0 0-21-96 0c-42 0-75-34-75-75l0-43c0-41 33-74 75-74l96 0 0-22 192 0 0 22 74 0c42 0 75 33 75 74l0 43c0 41-33 75-75 75z m-288 117l0 117 235 0 0-117c0-18-14-32-32-32l-171 0c-17 0-32 14-32 32z m64-53l107 0 0-43-107 0z m-138-235c-30 0-54 24-54 53l0 43c0 29 24 53 54 53l96 0 0-149z m266-21l-149 0 0 192 149 0z m150 74c0-29-24-53-54-53l-74 0 0 149 74 0c30 0 54-24 54-53z"/>
<glyph unicode="&#77;" d="M469 427l-426 0c-24 0-43-19-43-43l0-256c0-24 19-43 43-43l426 0c24 0 43 19 43 43l0 256c0 24-19 43-43 43z m22-299c0-12-10-21-22-21l-426 0c-12 0-22 9-22 21l0 256c0 12 10 21 22 21l426 0c12 0 22-9 22-21z m-45 208c-3 5-10 7-14 4l-176-114-176 114c-4 3-11 1-14-4-3-4-2-11 3-14l187-121 187 121c5 3 6 10 3 14z m-292-103l-96-64c-5-3-6-10-3-15 2-3 6-5 9-5 2 0 4 1 6 2l96 64c5 3 6 10 3 15-3 5-10 6-15 3z m204 0c-5 3-12 2-15-3-3-5-2-12 3-15l96-64c2-1 4-2 6-2 3 0 7 2 9 5 3 5 2 12-3 15z"/>
<glyph unicode="&#78;" d="M256 192c-23 0-44 5-64 12l0-204 64 64 64-64 0 204c-20-7-41-12-64-12z m0 320c-71 0-128-57-128-128 0-71 57-128 128-128 71 0 128 57 128 128 0 71-57 128-128 128z m0-192c-35 0-64 29-64 64 0 35 29 64 64 64 35 0 64-29 64-64 0-35-29-64-64-64z"/>
<glyph unicode="&#79;" d="M402 165c0-5-2-10-5-13-4-4-8-6-13-6l-256 0c-5 0-9 2-13 6-3 3-5 8-5 13 0 5 2 9 5 12l128 128c4 4 8 6 13 6 5 0 9-2 13-6l128-128c3-3 5-7 5-12z"/>
<glyph unicode="&#80;" d="M164 437l345 0 0-19-345 0z m3-169l345 0 0-20-345 0z m2-174l341 0 0-19-341 0z m-64 277l10 0 0 113-115 0 0-113 105 0z m-86 94l77 0 0-75-77 0z m96-150l-115 0 0-114 115 0z m-19-95l-77 0 0 76 77 0 0-76z m-95-192l114 0 0 113-114 0z m19 94l76 0 0-75-76 0z"/>
<glyph unicode="&#81;" d="M160 448l0-32 320 0 0 32z m0-192l320 0 0 32-320 0z m0-160l320 0 0 32-320 0z m-128-64l96 0 0 96-96 0z m0 160l96 0 0 96-96 0z m0 160l96 0 0 96-96 0z"/>
<glyph unicode="&#83;" d="M480 512l-448 0c-18 0-32-14-32-32l0-448c0-18 14-32 32-32l448 0c18 0 32 14 32 32l0 448c0 18-14 32-32 32z m-288-256c0 0 5 64 64 64 59 0 64-64 64-64 0 0 2-64-64-64-66 0-64 64-64 64z m256-192l-384 0 0 224 69 0c-3-10-5-21-5-32 0-71 57-128 128-128 71 0 128 57 128 128 0 11-2 22-5 32l69 0z m0 288l-96 0 0 96 96 0z"/>
</font></defs></svg>
